^C:\USERS\USER\DOCUMENTS\VISUAL STUDIO 2013\PROJECTS\OPENCVHW3\OPENCVHW3\STDAFX.CPP
C:\USERS\USER\DOCUMENTS\VISUAL STUDIO 2013\PROJECTS\OPENCVHW3\OPENCVHW3\DEBUG\OPENCVHW3.PCH
C:\USERS\USER\DOCUMENTS\VISUAL STUDIO 2013\PROJECTS\OPENCVHW3\OPENCVHW3\DEBUG\VC120.PDB
C:\USERS\USER\DOCUMENTS\VISUAL STUDIO 2013\PROJECTS\OPENCVHW3\OPENCVHW3\DEBUG\VC120.IDB
C:\USERS\USER\DOCUMENTS\VISUAL STUDIO 2013\PROJECTS\OPENCVHW3\OPENCVHW3\DEBUG\STDAFX.OBJ
^C:\USERS\USER\DOCUMENTS\VISUAL STUDIO 2013\PROJECTS\OPENCVHW3\OPENCVHW3\OPENCVHW3.CPP|C:\USERS\USER\DOCUMENTS\VISUAL STUDIO 2013\PROJECTS\OPENCVHW3\OPENCVHW3\OPENCVHW3DLG.CPP
C:\USERS\USER\DOCUMENTS\VISUAL STUDIO 2013\PROJECTS\OPENCVHW3\OPENCVHW3\DEBUG\VC120.PDB
C:\USERS\USER\DOCUMENTS\VISUAL STUDIO 2013\PROJECTS\OPENCVHW3\OPENCVHW3\DEBUG\VC120.IDB
C:\USERS\USER\DOCUMENTS\VISUAL STUDIO 2013\PROJECTS\OPENCVHW3\OPENCVHW3\DEBUG\OPENCVHW3.OBJ
^C:\USERS\USER\DOCUMENTS\VISUAL STUDIO 2013\PROJECTS\OPENCVHW3\OPENCVHW3\OPENCVHW3.CPP
C:\USERS\USER\DOCUMENTS\VISUAL STUDIO 2013\PROJECTS\OPENCVHW3\OPENCVHW3\DEBUG\VC120.PDB
^C:\USERS\USER\DOCUMENTS\VISUAL STUDIO 2013\PROJECTS\OPENCVHW3\OPENCVHW3\OPENCVHW3DLG.CPP
C:\USERS\USER\DOCUMENTS\VISUAL STUDIO 2013\PROJECTS\OPENCVHW3\OPENCVHW3\DEBUG\VC120.PDB
C:\USERS\USER\DOCUMENTS\VISUAL STUDIO 2013\PROJECTS\OPENCVHW3\OPENCVHW3\DEBUG\VC120.IDB
C:\USERS\USER\DOCUMENTS\VISUAL STUDIO 2013\PROJECTS\OPENCVHW3\OPENCVHW3\DEBUG\OPENCVHW3DLG.OBJ
